A Gentle Introduction
…
#> # A tibble: 4 x 6
#>   country continent  year lifeExp     pop gdpPercap
#>   <fct>   <fct>     <int>   <dbl>   <int>     <dbl>
#> 1 Sweden  Europe     1992    78.2 8718867    23880.
#> 2 Sweden  Europe     1997    79.4 8897619    25267.
#> 3 Sweden  Europe     2002    80.0 8954175    29342.
#> 4 Sweden  Europe     2007    80.9 9031088    33860.

We could also use the x %in% y expression which will filter every row where x matches one of the values of y. With this we can filter for two countries in our data.

gapminder_df %>% 
    filter(country %in% c("Sweden", "Norway"))
#> # A tibble: 24 x 6
#>    country continent  year lifeExp     pop gdpPercap
#>    <fct>   <fct>     <int>   <dbl>   <int>     <dbl>
#>  1 Norway  Europe     1952    72.7 3327728    10095.
#>  2 Norway  Europe     1957    73.4 3491938    11654.
#>  3 Norway  Europe     1962    73.5 3638919    13450.
#>  4 Norway  Europe     1967    74.1 3786019    16362.
#>  5 Norway  Europe     1972    74.3 3933004    18965.
#>  6 Norway  Europe     1977    75.4 4043205    23311.
#>  7 Norway  Europe     1982    76.0 4114787    26299.
#>  8 Norway  Europe     1987    75.9 4186147    31541.
#>  9 Norway  Europe     1992    77.3 4286357    33966.
#> 10 Norway  Europe     1997    78.3 4405672    41283.
#> # ... with 14 more rows
…
Some exaples of certain logical operators. To see the role of each line, check the comments in the code snippet below.

gapminder_df %>% 
    filter(continent == "Africa" & gdpPercap > 8000) # AND

#> # A tibble: 27 x 6
#>    country           continent  year lifeExp     pop gdpPercap
#>    <fct>             <fct>     <int>   <dbl>   <int>     <dbl>
#>  1 Botswana          Africa     1997    52.6 1536536     8647.
#>  2 Botswana          Africa     2002    46.6 1630347    11004.
#>  3 Botswana          Africa     2007    50.7 1639131    12570.
#>  4 Equatorial Guinea Africa     2007    51.6  551201    12154.
#>  5 Gabon             Africa     1967    44.6  489004     8359.
#>  6 Gabon             Africa     1972    48.7  537977    11402.
#>  7 Gabon             Africa     1977    52.8  706367    21746.
#>  8 Gabon             Africa     1982    56.6  753874    15113.
#>  9 Gabon             Africa     1987    60.2  880397    11864.
#> 10 Gabon             Africa     1992    61.4  985739    13522.
#> # ... with 17 more rows

gapminder_df %>% 
    filter(!continent %in% c("Africa", "Europe") ) # everything but Africa and Europe (!%in% won't work)

#> # A tibble: 720 x 6
#>    country     continent  year lifeExp      pop gdpPercap
#>    <fct>       <fct>     <int>   <dbl>    <int>     <dbl>
#>  1 Afghanistan Asia       1952    28.8  8425333      779.
#>  2 Afghanistan Asia       1957    30.3  9240934      821.
#>  3 Afghanistan Asia       1962    32.0 10267083      853.
#>  4 Afghanistan Asia       1967    34.0 11537966      836.
#>  5 Afghanistan Asia       1972    36.1 13079460      740.
#>  6 Afghanistan Asia       1977    38.4 14880372      786.
#>  7 Afghanistan Asia       1982    39.9 12881816      978.
#>  8 Afghanistan Asia       1987    40.8 13867957      852.
#>  9 Afghanistan Asia       1992    41.7 16317921      649.
#> 10 Afghanistan Asia       1997    41.8 22227415      635.
#> # ... with 710 more rows

gapminder_df %>% 
    filter(year > 1990,  !lifeExp < 80) # we filter for the years after 1990 where the lifeExp < 80 condition is FALSE

#> # A tibble: 22 x 6
#>    country          continent  year lifeExp      pop gdpPercap
#>    <fct>            <fct>     <int>   <dbl>    <int>     <dbl>
#>  1 Australia        Oceania    2002    80.4 19546792    30688.
#>  2 Australia        Oceania    2007    81.2 20434176    34435.
#>  3 Canada           Americas   2007    80.7 33390141    36319.
#>  4 France           Europe     2007    80.7 61083916    30470.
#>  5 Hong Kong, China Asia       1997    80    6495918    28378.
#>  6 Hong Kong, China Asia       2002    81.5  6762476    30209.
#>  7 Hong Kong, China Asia       2007    82.2  6980412    39725.
#>  8 Iceland          Europe     2002    80.5   288030    31163.
#>  9 Iceland          Europe     2007    81.8   301931    36181.
#> 10 Israel           Asia       2007    80.7  6426679    25523.
#> # ... with 12 more rows

6.3 Selecting columns and re-ordering values

For selection of columns (variables) we will use the, dplyr::select() function. The logic is the same as for filtering rows.

gapminder_df %>% 
    select(continent)
#> # A tibble: 1,704 x 1
#>    continent
#>    <fct>    
#>  1 Asia     
#>  2 Asia     
#>  3 Asia     
#>  4 Asia     
#>  5 Asia     
#>  6 Asia     
#>  7 Asia     
#>  8 Asia     
#>  9 Asia     
#> 10 Asia     
#> # ... with 1,694 more rows

you can select multiple columns easily by their name

gapminder_df %>% 
    select(continent, year)
#> # A tibble: 1,704 x 2
#>    continent  year
#>    <fct>     <int>
#>  1 Asia       1952
#>  2 Asia       1957
#>  3 Asia       1962
#>  4 Asia       1967
#>  5 Asia       1972
#>  6 Asia       1977
#>  7 Asia       1982
#>  8 Asia       1987
#>  9 Asia       1992
#> 10 Asia       1997
#> # ... with 1,694 more rows

or give a range

gapminder_df %>% 
    select(country:year)
#> # A tibble: 1,704 x 3
#>    country     continent  year
#>    <fct>       <fct>     <int>
#>  1 Afghanistan Asia       1952
#>  2 Afghanistan Asia       1957
#>  3 Afghanistan Asia       1962
#>  4 Afghanistan Asia       1967
#>  5 Afghanistan Asia       1972
#>  6 Afghanistan Asia       1977
#>  7 Afghanistan Asia       1982
#>  8 Afghanistan Asia       1987
#>  9 Afghanistan Asia       1992
#> 10 Afghanistan Asia       1997
#> # ... with 1,694 more rows

The select function works if you have a very large dataset and want to access columns by their location rather than their name. Lets say we want the first two and the fifth variable.

gapminder_df %>% 
    select(1:2, 5)
#> # A tibble: 1,704 x 3
#>    country     continent      pop
#>    <fct>       <fct>        <int>
#>  1 Afghanistan Asia       8425333
#>  2 Afghanistan Asia       9240934
#>  3 Afghanistan Asia      10267083
#>  4 Afghanistan Asia      11537966
#>  5 Afghanistan Asia      13079460
#>  6 Afghanistan Asia      14880372
#>  7 Afghanistan Asia      12881816
#>  8 Afghanistan Asia      13867957
#>  9 Afghanistan Asia      16317921
#> 10 Afghanistan Asia      22227415
#> # ... with 1,694 more rows

You can have remove columns with select(data, -column). This code removs columns between year and gdp per capita.

gapminder_df %>% 
    select(-(year:gdpPercap))
#> # A tibble: 1,704 x 2
#>    country     continent
#>    <fct>       <fct>    
#>  1 Afghanistan Asia     
#>  2 Afghanistan Asia     
#>  3 Afghanistan Asia     
#>  4 Afghanistan Asia     
#>  5 Afghanistan Asia     
#>  6 Afghanistan Asia     
#>  7 Afghanistan Asia     
#>  8 Afghanistan Asia     
#>  9 Afghanistan Asia     
#> 10 Afghanistan Asia     
#> # ... with 1,694 more rows
…
starts_with("xyz"): selects column where the name matches the specified "xyz" string.

ends_with("jfk"): matches the string (jfk in this case) with the end of the column name

contains("klm"): matches names that contain klm

num_range("x", 1:3): matches x1, x2, x3

The select() function also lets us do some other data manipulation tasks as well. You can use it to reorder and rename your variables. The order you specify the columns in the select() function will be the new order. You can also set the name with select(newname = oldname), altough it that case it will drop all other columns not specified. To avoid this, you can be explicit about renaming with the dplyr::rename() function.

# reorder our variables and rename them.
gapminder_df %>% 
    select(country, continent, year, gdpPercap, lifeExp, -pop) %>% # we reorder the columns and drop the pop column
    rename(gdp_percap = gdpPercap, life_exp = lifeExp)
#> # A tibble: 1,704 x 5
#>    country     continent  year gdp_percap life_exp
#>    <fct>       <fct>     <int>      <dbl>    <dbl>
#>  1 Afghanistan Asia       1952       779.     28.8
#>  2 Afghanistan Asia       1957       821.     30.3
#>  3 Afghanistan Asia       1962       853.     32.0
#>  4 Afghanistan Asia       1967       836.     34.0
#>  5 Afghanistan Asia       1972       740.     36.1
#>  6 Afghanistan Asia       1977       786.     38.4
#>  7 Afghanistan Asia       1982       978.     39.9
#>  8 Afghanistan Asia       1987       852.     40.8
#>  9 Afghanistan Asia       1992       649.     41.7
#> 10 Afghanistan Asia       1997       635.     41.8
#> # ... with 1,694 more rows

If you want you can store the column names in a character vector and plug that in to the function.

vars <- c("lifeExp", "pop", "gdpPercap") # columns we want selected
gapminder_df %>% 
    select(vars)
#> # A tibble: 1,704 x 3
#>    lifeExp      pop gdpPercap
#>      <dbl>    <int>     <dbl>
#>  1    28.8  8425333      779.
#>  2    30.3  9240934      821.
#>  3    32.0 10267083      853.
#>  4    34.0 11537966      836.
#>  5    36.1 13079460      740.
#>  6    38.4 14880372      786.
#>  7    39.9 12881816      978.
#>  8    40.8 13867957      852.
#>  9    41.7 16317921      649.
#> 10    41.8 22227415      635.
#> # ... with 1,694 more rows

We can also re-order our cases by a given column, either in descending or ascending order. The dplyr::arrange() function will re-order in ascending order by default.

# lets pipe together a select and arrange function
gapminder_df %>% 
    select(lifeExp) %>% 
    arrange(lifeExp)
#> # A tibble: 1,704 x 1
#>    lifeExp
#>      <dbl>
#>  1    23.6
#>  2    28.8
#>  3    30  
#>  4    30.0
#>  5    30.3
#>  6    30.3
#>  7    31.2
#>  8    31.3
#>  9    31.6
#> 10    32.0
#> # ... with 1,694 more rows

You can use dplyr::desc() within arrange() to order the values in descending order.

We can also combine selectand filter for filtering for all of the selected variables. To do this, we use the filter_all function and the all_vars() within it.

6.4 Recoding and adding variables

dplyr makes it easy to recode our columns and create new ones with the dplyr::mutate() and dplyr::transmute() functions. mutate() lets you do all the stuff that we covered when we looked at vectors. You have the option to have the calculation results in a new column (preferable) or overwrite an existing one (probably not the best idea).

Lets recode the pop variable to show population by a thousand using the mutate function. We will call our new variable pop_k.

gapminder_df %>% 
    select(country, year, pop) %>% 
    mutate(pop_k = pop/1000) # creating the new column, pop_k
#> # A tibble: 1,704 x 4
#>    country      year      pop  pop_k
#>    <fct>       <int>    <int>  <dbl>
#>  1 Afghanistan  1952  8425333  8425.
#>  2 Afghanistan  1957  9240934  9241.
#>  3 Afghanistan  1962 10267083 10267.
#>  4 Afghanistan  1967 11537966 11538.
#>  5 Afghanistan  1972 13079460 13079.
#>  6 Afghanistan  1977 14880372 14880.
#>  7 Afghanistan  1982 12881816 12882.
#>  8 Afghanistan  1987 13867957 13868.
#>  9 Afghanistan  1992 16317921 16318.
#> 10 Afghanistan  1997 22227415 22227.
#> # ... with 1,694 more rows

We can carry out operations with our existing columns as well. Lets calculate the GDP from the GDP per capita and population data.

gapminder_df %>% 
    select(country, year, gdpPercap) %>% 
    mutate(gdp = gdpPercap * pop)

#> Warning: Problem with `mutate()` input `gdp`.
#> i longer object length is not a multiple of shorter object length
#> i Input `gdp` is `gdpPercap * pop`.

#> Warning in gdpPercap * pop: longer object length is not a multiple of shorter
#> object length

#> # A tibble: 1,704 x 4
#>    country      year gdpPercap    gdp
#>    <fct>       <int>     <dbl>  <dbl>
#>  1 Afghanistan  1952      779. 53548.
#>  2 Afghanistan  1957      821.  4268.
#>  3 Afghanistan  1962      853. 20474.
#>  4 Afghanistan  1967      836. 39970.
#>  5 Afghanistan  1972      740.  1480.
#>  6 Afghanistan  1977      786. 49997.
#>  7 Afghanistan  1982      978. 30905.
#>  8 Afghanistan  1987      852. 58560.
#>  9 Afghanistan  1992      649.  3377.
#> 10 Afghanistan  1997      635. 15248.
#> # ... with 1,694 more rows

What is the problem? We should be careful about the order we pipe together various functions.

gapminder_df %>% 
    mutate(gdp_mil = ((gdpPercap * pop)/10^6)) %>% # multiply the two columns and then divide by a million
    select(country, year, gdp_mil) 
#> # A tibble: 1,704 x 3
#>    country      year gdp_mil
#>    <fct>       <int>   <dbl>
#>  1 Afghanistan  1952   6567.
#>  2 Afghanistan  1957   7585.
#>  3 Afghanistan  1962   8759.
#>  4 Afghanistan  1967   9648.
#>  5 Afghanistan  1972   9679.
#>  6 Afghanistan  1977  11698.
#>  7 Afghanistan  1982  12599.
#>  8 Afghanistan  1987  11821.
#>  9 Afghanistan  1992  10596.
#> 10 Afghanistan  1997  14122.
#> # ... with 1,694 more rows
…
